[
    {
        "id": 1000201001,
        "pid": "754a08ddf8bcb1cf22f310f09206dd783d42f7dd",
        "type": 2,
        "subtype": 0,
        "name": "Home",
        "uri": null,
        "target": "self",
        "icon": "fa fa-home",
        "order": 10,
        "from": "Dashboard",
        "permission": null,
        "parent": 0,
        "children": [
            {
                "id": 1000202001,
                "pid": "754a08ddf8bcb1cf22f310f09206dd783d42f7dd",
                "type": 2,
                "subtype": 1,
                "name": "Dashboard",
                "uri": "/{/lang}/backend",
                "target": "self",
                "icon": null,
                "order": 1,
                "from": "Dashboard",
                "permission": null,
                "parent": 1000201001,
                "children": []
            }
        ]
    },
    {
        "id": 1000200001,
        "pid": "754a08ddf8bcb1cf22f310f09206dd783d42f7dd",
        "type": 1,
        "subtype": 1,
        "name": "Logout",
        "uri": "/{/lang}/api/logout",
        "target": "self",
        "icon": "fa fa-power-off",
        "order": 999,
        "from": "Dashboard",
        "permission": null,
        "parent": 0,
        "children": []
    },
    {
        "id": 1000210001,
        "pid": "40a630e157504605e40ba241f6b1f78ab1dd97b9",
        "type": 1,
        "subtype": 1,
        "name": "Logout",
        "uri": "/{/lang}/api/logout",
        "target": "self",
        "icon": "fa fa-power-off",
        "order": 999,
        "from": "Dashboard",
        "permission": null,
        "parent": 0,
        "children": []
    }
]
