{
    "name": {
        "id": 1000800000,
        "internal": "Survys",
        "external": "OMS Surveys"
    },
    "version": "1.0.0",
    "requirements": {
        "phpOMS": "1.0.0",
        "phpOMS-db": "1.0.0"
    },
    "creator": {
        "name": "Orange Management",
        "website": "www.spl1nes.com"
    },
    "description": "Surveys module.",
    "directory": "Surveys",
    "dependencies": {
        "Admin" : "1.0.0"
    },
    "providing": {
        "Navigation": "*"
    },
    "load": [
        {
            "pid": [
                "6c941ab5b60c49df3c7d50b935fd213c060a6664"
            ],
            "type": 4,
            "for": 0,
            "from": "Surveys",
            "file": "Surveys"
        },
        {
            "pid": [
                "754a08ddf8bcb1cf22f310f09206dd783d42f7dd"
            ],
            "type": 5,
            "from": "Surveys",
            "for": "Navigation",
            "file": "Navigation"
        },
        {
            "pid": [
                "6c941ab5b60c49df3c7d50b935fd213c060a6664"
            ],
            "type": 5,
            "for": "Content",
            "file": "",
            "from": "Surveys"
        }
    ]
}
