[
    {
        "id": 1004501001,
        "pid": "754a08ddf8bcb1cf22f310f09206dd783d42f7dd",
        "type": 2,
        "subtype": 1,
        "name": "CostCenters",
        "uri": "/{/lang}/backend/accounting/costcenter/list",
        "target": "self",
        "icon": null,
        "order": 5,
        "from": 1004500000,
        "permission": null,
        "parent": 1002601001,
        "children": [
            {
                "id": 1004501101,
                "pid": "754a08ddf8bcb1cf22f310f09206dd783d42f7dd",
                "type": 3,
                "subtype": 1,
                "name": "List",
                "uri": "/{/lang}/backend/accounting/costcenter/list",
                "target": "self",
                "icon": null,
                "order": 5,
                "from": 1004500000,
                "permission": null,
                "parent": 1004501001,
                "children": []
            },
            {
                "id": 1004503201,
                "pid": "754a08ddf8bcb1cf22f310f09206dd783d42f7dd",
                "type": 3,
                "subtype": 1,
                "name": "Create",
                "uri": "/{/lang}/backend/accounting/costcenter/create",
                "target": "self",
                "icon": null,
                "order": 10,
                "from": 1004500000,
                "permission": null,
                "parent": 1004501001,
                "children": []
            }
        ]
    }
]
