{
    "name": {
        "id": 1002300000,
        "internal": "CreditManagement",
        "external": "OMS Credit Management"
    },
    "version": "1.0.0",
    "requirements": {
        "phpOMS": "1.0.0",
        "phpOMS-db": "1.0.0"
    },
    "creator": {
        "name": "Orange Management",
        "website": "www.spl1nes.com"
    },
    "description": "Research & Development module.",
    "directory": "CreditManagement",
    "dependencies": {
        "Admin" : "1.0.0"
    },
    "providing": {
        "Navigation": "*"
    },
    "load": [
        {
            "pid": [
                "a5dd2992c4ffd521e23894599418f28a07e0ff1a"
            ],
            "type": 4,
            "for": 0,
            "from": "CreditManagement",
            "file": "CreditManagement"
        },
        {
            "pid": [
                "754a08ddf8bcb1cf22f310f09206dd783d42f7dd"
            ],
            "type": 5,
            "from": "CreditManagement",
            "for": "Navigation",
            "file": "Navigation"
        },
        {
            "pid": [
                "a5dd2992c4ffd521e23894599418f28a07e0ff1a"
            ],
            "type": 5,
            "for": "Content",
            "file": "",
            "from": "CreditManagement"
        }
    ]
}
