{
    "name": {
        "id": 1004800000,
        "internal": "ItemManagement",
        "external": "OMS Item Reference"
    },
    "version": "1.0.0",
    "requirements": {
        "phpOMS": "1.0.0",
        "phpOMS-db": "1.0.0"
    },
    "creator": {
        "name": "Orange Management",
        "website": "www.spl1nes.com"
    },
    "description": "Event Management module.",
    "directory": "ItemManagement",
    "dependencies": {
        "Admin" : "1.0.0"
    },
    "providing": {
        "Navigation": "*"
    },
    "load": [
        {
            "pid": [
                "e3d6f58661c6f42309e273740944547c93ff76a0",
                "e9b2adda603aaee5f852c05fabe394bd56cf0426",
                "69737ca3a3dfa6a55a1a0402474ac634c371ea9f"
            ],
            "type": 4,
            "for": 0,
            "from": "ItemManagement",
            "file": "ItemManagement"
        },
        {
            "pid": [
                "754a08ddf8bcb1cf22f310f09206dd783d42f7dd"
            ],
            "type": 5,
            "from": "ItemManagement",
            "for": "Navigation",
            "file": "Navigation"
        },
        {
            "pid": [
                "e3d6f58661c6f42309e273740944547c93ff76a0",
                "e9b2adda603aaee5f852c05fabe394bd56cf0426",
                "69737ca3a3dfa6a55a1a0402474ac634c371ea9f"
            ],
            "type": 5,
            "for": "Content",
            "file": "",
            "from": "ItemManagement"
        }
    ]
}
