{
    "name": {
        "id": 1001000000,
        "internal": "BusinessExpenses",
        "external": "OMS Accounts Receivable"
    },
    "version": "1.0.0",
    "requirements": {
        "phpOMS": "1.0.0",
        "phpOMS-db": "1.0.0"
    },
    "creator": {
        "name": "Orange Management",
        "website": "www.spl1nes.com"
    },
    "description": "Accounting module.",
    "directory": "BusinessExpenses",
    "dependencies": {
        "Admin" : "1.0.0"
    },
    "providing": {
        "Navigation": "*"
    },
    "load": [
        {
            "pid": [
                "754a08ddf8bcb1cf22f310f09206dd783d42f7dd"
            ],
            "type": 5,
            "from": "BusinessExpenses",
            "for": "Navigation",
            "file": "Navigation"
        },
        {
            "pid": [
                "47e9d72449035cd040e0f93693fd0a925bf6e340"
            ],
            "type": 5,
            "for": "Content",
            "file": "",
            "from": "BusinessExpenses"
        }
    ]
}
