{
    "name": {
        "id": 1003500000,
        "internal": "PersonnelTimeManagement",
        "external": "OMS Tasks"
    },
    "version": "1.0.0",
    "requirements": {
        "phpOMS": "1.0.0",
        "phpOMS-db": "1.0.0"
    },
    "creator": {
        "name": "Orange Management",
        "website": "www.spl1nes.com"
    },
    "description": "Tasks module.",
    "directory": "PersonnelTimeManagement",
    "dependencies": {
        "Admin" : "1.0.0"
    },
    "providing": {
        "Navigation": "*"
    },
    "load": [
        {
            "pid": [
                "66503874f6c5e79e66fa47bd42847a8955fdd933",
                "e14add4f7ed11342626a4fccc17eab017fecb028"
            ],
            "type": 4,
            "for": 0,
            "from": "PersonnelTimeManagement",
            "file": "PersonnelTimeManagement"
        },
        {
            "pid": [
                "754a08ddf8bcb1cf22f310f09206dd783d42f7dd"
            ],
            "type": 5,
            "from": "PersonnelTimeManagement",
            "for": "Navigation",
            "file": "Navigation"
        },
        {
            "pid": [
                "66503874f6c5e79e66fa47bd42847a8955fdd933",
                "e14add4f7ed11342626a4fccc17eab017fecb028"
            ],
            "type": 5,
            "for": "Content",
            "file": "",
            "from": "PersonnelTimeManagement"
        }
    ]
}
