[
    {
        "id": 1004701001,
        "pid": "754a08ddf8bcb1cf22f310f09206dd783d42f7dd",
        "type": 2,
        "subtype": 0,
        "name": "Organization",
        "uri": null,
        "target": "self",
        "icon": "fa fa-database",
        "order": 2,
        "from": "Organization",
        "permission": null,
        "parent": 0,
        "children": [
            {
                "id": 1004702001,
                "pid": "754a08ddf8bcb1cf22f310f09206dd783d42f7dd",
                "type": 2,
                "subtype": 1,
                "name": "Units",
                "uri": "/{/lang}/backend/organization/unit/list",
                "target": "self",
                "icon": null,
                "order": 1,
                "from": "Organization",
                "permission": null,
                "parent": 1004701001,
                "children": [
                    {
                        "id": 1004702101,
                        "pid": "bed7df3aff1a2bcb0b5e761764a93f84c2793daf",
                        "type": 3,
                        "subtype": 1,
                        "name": "List",
                        "uri": "/{/lang}/backend/organization/unit/list",
                        "target": "self",
                        "icon": null,
                        "order": 5,
                        "from": "Organization",
                        "permission": null,
                        "parent": 1004702001,
                        "children": []
                    },
                    {
                        "id": 1004702102,
                        "pid": "bed7df3aff1a2bcb0b5e761764a93f84c2793daf",
                        "type": 3,
                        "subtype": 1,
                        "name": "Create",
                        "uri": "/{/lang}/backend/organization/unit/create",
                        "target": "self",
                        "icon": null,
                        "order": 25,
                        "from": "Organization",
                        "permission": null,
                        "parent": 1004702001,
                        "children": []
                    }
                ]
            },
            {
                "id": 1004703001,
                "pid": "754a08ddf8bcb1cf22f310f09206dd783d42f7dd",
                "type": 2,
                "subtype": 1,
                "name": "Departments",
                "uri": "/{/lang}/backend/organization/department/list",
                "target": "self",
                "icon": null,
                "order": 5,
                "from": "Organization",
                "permission": null,
                "parent": 1004701001,
                "children": [
                    {
                        "id": 1004703101,
                        "pid": "fab21c089971de13f680a30c8fdd0a8edc97af6a",
                        "type": 3,
                        "subtype": 1,
                        "name": "List",
                        "uri": "/{/lang}/backend/organization/department/list",
                        "target": "self",
                        "icon": null,
                        "order": 5,
                        "from": "Organization",
                        "permission": null,
                        "parent": 1004703001,
                        "children": []
                    },
                    {
                        "id": 1004703102,
                        "pid": "fab21c089971de13f680a30c8fdd0a8edc97af6a",
                        "type": 3,
                        "subtype": 1,
                        "name": "Create",
                        "uri": "/{/lang}/backend/organization/department/create",
                        "target": "self",
                        "icon": null,
                        "order": 25,
                        "from": "Organization",
                        "permission": null,
                        "parent": 1004703001,
                        "children": []
                    }
                ]
            },
            {
                "id": 1004704001,
                "pid": "754a08ddf8bcb1cf22f310f09206dd783d42f7dd",
                "type": 2,
                "subtype": 1,
                "name": "Positions",
                "uri": "/{/lang}/backend/organization/position/list",
                "target": "self",
                "icon": null,
                "order": 20,
                "from": "Organization",
                "permission": null,
                "parent": 1004701001,
                "children": [
                    {
                        "id": 1004704101,
                        "pid": "67b1a05950026df723a6c35c7801234c978e85f2",
                        "type": 3,
                        "subtype": 1,
                        "name": "List",
                        "uri": "/{/lang}/backend/organization/position/list",
                        "target": "self",
                        "icon": null,
                        "order": 5,
                        "from": "Organization",
                        "permission": null,
                        "parent": 1004704001,
                        "children": []
                    },
                    {
                        "id": 1004704102,
                        "pid": "67b1a05950026df723a6c35c7801234c978e85f2",
                        "type": 3,
                        "subtype": 1,
                        "name": "Create",
                        "uri": "/{/lang}/backend/organization/position/create",
                        "target": "self",
                        "icon": null,
                        "order": 25,
                        "from": "Organization",
                        "permission": null,
                        "parent": 1004704001,
                        "children": []
                    }
                ]
            }
        ]
    }
]
